aquaculture_mapping
…
#This code chunk is going to be where I dissolve the counties of each state so that I am left with only the outline of the state.

ca_counties$area <- st_area(ca_counties)
ca_counties

## Simple feature collection with 58 features and 11 fields
## geometry type:  MULTIPOLYGON
## dimension:      XY
## bbox:           xmin: -124.482 ymin: 32.52883 xmax: -114.1312 ymax: 42.0095
## CRS:            4269
## # A tibble: 58 x 12
##    OBJECTID COUNTYNS GEOID NAMELSAD CLASSFP FUNCSTAT   ALAND AWATER INTPTLAT
##       <dbl> <chr>    <chr> <chr>    <chr>   <chr>      <dbl>  <dbl> <chr>   
##  1        1 01675839 06001 Alameda H1      A        1.91e 9 2.17e8 +37.647
##  2        2 01675840 06003 Alpine  H1      A        1.91e 9 1.26e7 +38.621
##  3        3 01675841 06005 Amador  H1      A        1.54e 9 2.95e7 +38.443
##  4        4 02054176 06029 Kern Co H1      A        2.11e10 7.87e7 +35.346
##  5        5 00277298 06067 Sacrame H1      A        2.50e 9 7.54e7 +38.450
##  6        6 00277302 06075 San Fra H6      C        1.21e 8 4.79e8 +37.727
##  7        7 00277322 06115 Yuba Co H1      A        1.64e 9 3.11e7 +39.270
##  8        8 01675842 06007 Butte C H1      A        4.24e 9 1.05e8 +39.665
##  9        9 01675885 06009 Calaver H1      A        2.64e 9 4.38e7 +38.183
## 10       10 01675902 06011 Colusa  H1      A        2.98e 9 1.46e7 +39.177
## #  with 48 more rows, and 3 more variables: INTPTLON <chr>,
## #   geometry <MULTIPOLYGON []>, area [m^2]
…
